…
    Code
      flux_quality(slopes0, fit_type = "expo", slope_col = "f_slope")
    Message
      
       Total number of measurements: 6
      
       ok 	 6 	 100 %
       discard 	 0 	 0 %
       zero 	 0 	 0 %
       force_discard 	 0 	 0 %
       start_error 	 0 	 0 %
       no_data 	 0 	 0 %
       force_ok 	 0 	 0 %
    Output
      # A tibble: 1,251 x 39
         f_datetime          temp_air temp_soil f_conc   PAR turfID       type 
         <dttm>                 <dbl>     <dbl>  <dbl> <dbl> <chr>        <chr>
       1 2022-07-28 23:43:35    NA         NA     447. NA    156 AN2C 156 ER   
       2 2022-07-28 23:43:36     7.22      10.9   447.  1.68 156 AN2C 156 ER   
       3 2022-07-28 23:43:37    NA         NA     448. NA    156 AN2C 156 ER   
       4 2022-07-28 23:43:38    NA         NA     449. NA    156 AN2C 156 ER   
       5 2022-07-28 23:43:39    NA         NA     449. NA    156 AN2C 156 ER   
       6 2022-07-28 23:43:40    NA         NA     450. NA    156 AN2C 156 ER   
       7 2022-07-28 23:43:41    NA         NA     451. NA    156 AN2C 156 ER   
       8 2022-07-28 23:43:42    NA         NA     451. NA    156 AN2C 156 ER   
       9 2022-07-28 23:43:43    NA         NA     453. NA    156 AN2C 156 ER   
      10 2022-07-28 23:43:44    NA         NA     453. NA    156 AN2C 156 ER   
      # i 1,241 more rows
      # i 32 more variables: f_start <dttm>, f_end <dttm>, f_fluxID <dbl>,
      #   n_conc <dbl>, ratio <dbl>, flag <lgl>, f_time <dbl>, f_cut <chr>,
      #   Cm_est <dbl>, a_est <dbl>, b_est <dbl>, tz_est <dbl>, f_Cz <dbl>,
      #   time_diff <dbl>, f_Cm <dbl>, f_a <dbl>, f_b <dbl>, f_tz <dbl>,
      #   f_slope <dbl>, f_fit <dbl>, f_fit_slope <dbl>, f_start_z <dttm>,
      #   f_n_conc <int>, f_ratio <dbl>, f_flag_ratio <chr>, f_start_error <chr>, ...
…
    Code
      flux_quality(slopes30lin, fit_type = "li")
    Message
      
       Total number of measurements: 6
      
       discard 	 1 	 17 %
       ok 	 5 	 83 %
       zero 	 0 	 0 %
       force_discard 	 0 	 0 %
       start_error 	 0 	 0 %
       no_data 	 0 	 0 %
       force_ok 	 0 	 0 %
    Output
      # A tibble: 1,251 x 27
         f_datetime          temp_air temp_soil f_conc   PAR turfID       type 
         <dttm>                 <dbl>     <dbl>  <dbl> <dbl> <fct>        <fct>
       1 2022-07-28 23:43:35    NA         NA     447. NA    156 AN2C 156 ER   
       2 2022-07-28 23:43:36     7.22      10.9   447.  1.68 156 AN2C 156 ER   
       3 2022-07-28 23:43:37    NA         NA     448. NA    156 AN2C 156 ER   
       4 2022-07-28 23:43:38    NA         NA     449. NA    156 AN2C 156 ER   
       5 2022-07-28 23:43:39    NA         NA     449. NA    156 AN2C 156 ER   
       6 2022-07-28 23:43:40    NA         NA     450. NA    156 AN2C 156 ER   
       7 2022-07-28 23:43:41    NA         NA     451. NA    156 AN2C 156 ER   
       8 2022-07-28 23:43:42    NA         NA     451. NA    156 AN2C 156 ER   
       9 2022-07-28 23:43:43    NA         NA     453. NA    156 AN2C 156 ER   
      10 2022-07-28 23:43:44    NA         NA     453. NA    156 AN2C 156 ER   
      # i 1,241 more rows
      # i 20 more variables: f_start <dttm>, f_end <dttm>, f_fluxID <fct>,
      #   n_conc <dbl>, ratio <dbl>, flag <chr>, f_time <dbl>, f_cut <fct>,
      #   f_pvalue <dbl>, f_rsquared <dbl>, f_adj_rsquared <dbl>, f_intercept <dbl>,
      #   f_slope <dbl>, f_fit <dbl>, f_n_conc <int>, f_ratio <dbl>,
      #   f_flag_ratio <chr>, f_start_error <chr>, f_quality_flag <chr>,
      #   f_slope_corr <dbl>
…
    Code
      flux_quality(slopes30qua, fit_type = "quadratic")
    Message
      
       Total number of measurements: 6
      
       ok 	 6 	 100 %
       discard 	 0 	 0 %
       zero 	 0 	 0 %
       force_discard 	 0 	 0 %
       start_error 	 0 	 0 %
       no_data 	 0 	 0 %
       force_ok 	 0 	 0 %
    Output
      # A tibble: 1,251 x 30
         f_datetime          temp_air temp_soil f_conc   PAR turfID       type 
         <dttm>                 <dbl>     <dbl>  <dbl> <dbl> <fct>        <fct>
       1 2022-07-28 23:43:35    NA         NA     447. NA    156 AN2C 156 ER   
       2 2022-07-28 23:43:36     7.22      10.9   447.  1.68 156 AN2C 156 ER   
       3 2022-07-28 23:43:37    NA         NA     448. NA    156 AN2C 156 ER   
       4 2022-07-28 23:43:38    NA         NA     449. NA    156 AN2C 156 ER   
       5 2022-07-28 23:43:39    NA         NA     449. NA    156 AN2C 156 ER   
       6 2022-07-28 23:43:40    NA         NA     450. NA    156 AN2C 156 ER   
       7 2022-07-28 23:43:41    NA         NA     451. NA    156 AN2C 156 ER   
       8 2022-07-28 23:43:42    NA         NA     451. NA    156 AN2C 156 ER   
       9 2022-07-28 23:43:43    NA         NA     453. NA    156 AN2C 156 ER   
      10 2022-07-28 23:43:44    NA         NA     453. NA    156 AN2C 156 ER   
      # i 1,241 more rows
      # i 23 more variables: f_start <dttm>, f_end <dttm>, f_fluxID <fct>,
      #   n_conc <int>, ratio <dbl>, flag <chr>, f_time <dbl>, f_cut <fct>,
      #   f_rsquared <dbl>, f_adj_rsquared <dbl>, f_pvalue <dbl>, f_intercept <dbl>,
      #   f_param1 <dbl>, f_param2 <dbl>, f_slope <dbl>, f_fit <dbl>,
      #   f_fit_slope <dbl>, f_n_conc <int>, f_ratio <dbl>, f_flag_ratio <chr>,
      #   f_start_error <chr>, f_quality_flag <chr>, f_slope_corr <dbl>
