…
    Code
      flux_fitting(rep_data, fit_type = "exp")
    Message
      Cutting measurements...
      Estimating starting parameters for optimization...
      Optimizing fitting parameters...
      Calculating fits and slopes...
      Done.
    Condition
      Warning in `flux_fitting_exp()`:
      
       fluxID 5 : slope was estimated on 205 points out of 210 seconds
       fluxID 6 : slope was estimated on 206 points out of 210 seconds
    Output
      # A tibble: 1,251 x 29
         f_datetime          temp_air temp_soil f_conc   PAR turfID       type 
         <dttm>                 <dbl>     <dbl>  <dbl> <dbl> <fct>        <fct>
       1 2022-07-28 23:43:35    NA         NA     447. NA    156 AN2C 156 ER   
       2 2022-07-28 23:43:36     7.22      10.9   447.  1.68 156 AN2C 156 ER   
       3 2022-07-28 23:43:37    NA         NA     448. NA    156 AN2C 156 ER   
       4 2022-07-28 23:43:38    NA         NA     449. NA    156 AN2C 156 ER   
       5 2022-07-28 23:43:39    NA         NA     449. NA    156 AN2C 156 ER   
       6 2022-07-28 23:43:40    NA         NA     450. NA    156 AN2C 156 ER   
       7 2022-07-28 23:43:41    NA         NA     451. NA    156 AN2C 156 ER   
       8 2022-07-28 23:43:42    NA         NA     451. NA    156 AN2C 156 ER   
       9 2022-07-28 23:43:43    NA         NA     453. NA    156 AN2C 156 ER   
      10 2022-07-28 23:43:44    NA         NA     453. NA    156 AN2C 156 ER   
      # i 1,241 more rows
      # i 22 more variables: f_start <dttm>, f_end <dttm>, f_fluxID <fct>,
      #   n_conc <int>, ratio <dbl>, flag <chr>, f_time <dbl>, f_cut <fct>,
      #   Cm_est <dbl>, a_est <dbl>, b_est <dbl>, tz_est <dbl>, f_Cz <dbl>,
      #   time_diff <dbl>, f_Cm <dbl>, f_a <dbl>, f_b <dbl>, f_tz <dbl>,
      #   f_slope <dbl>, f_fit <dbl>, f_fit_slope <dbl>, f_start_z <dttm>
…
      Segmenting flux 8 out of 13 [========================>----------------] ( 62%)
      
      Segmenting flux 9 out of 13 [===========================>-------------] ( 69%)
      
      Segmenting flux 10 out of 13 [==============================>---------] ( 77%)
      
      Segmenting flux 11 out of 13 [=================================>------] ( 85%)
      
      Segmenting flux 12 out of 13 [====================================>---] ( 92%)
      
      Segmenting flux 13 out of 13 [========================================] (100%)
                                                                                    
      
    Output
      # A tibble: 1,665 x 33
         f_conc h2o_conc temperature_c pressure_kpa signal_strength
          <dbl>    <dbl>         <dbl>        <dbl>           <dbl>
       1   426.     14.3          18.7         73.1            99.2
       2   426.     14.5          18.8         73.1            99.3
       3   426.     14.7          18.8         73.1            99.2
       4   426.     14.8          18.8         73.1            99.2
       5   426.     14.9          18.9         73.1            99.2
       6   426.     14.9          18.9         73.1            99.2
       7   426.     15.1          18.9         73.1            99.2
       8   426.     15.2          19.0         73.1            99.2
       9   426.     15.3          19.0         73.1            99.2
      10   426.     15.4          19.0         73.1            99.2
      # i 1,655 more rows
      # i 28 more variables: f_datetime <dttm>, f_start <dttm>, f_fluxID <fct>,
      #   site <dbl>, elevation <dbl>, aspect <chr>, plot <dbl>, day_night <chr>,
      #   measurement <chr>, redo <lgl>, plot_id <chr>, par <dbl>, f_end <dttm>,
      #   f_time <dbl>, n_conc <int>, f_flag_fit <chr>, f_cut <fct>,
      #   corrected_for_water_vapor <chr>, f_time_cut <dbl>, f_fit <dbl>,
      #   f_slope <dbl>, f_rsquared <dbl>, f_adj_rsquared <dbl>, f_pvalue <dbl>, ...
