Matching continuously measured fluxes with measurement IDs and meta data — flux_match • fluxible
…
start_col
start column in field_record (dmy_hms format)

    Value

    a dataframe with concentration measurements, corresponding datetime,
flux ID, measurements start and end, flags in case of no data or low number
of data, and any variables present in one of the inputs.

    Examples

data(co2_df_short, record_short)
flux_match(co2_df_short, record_short)
#> # A tibble: 1,251 × 13
#>    f_datetime          temp_air temp_soil f_conc   PAR turfID       type 
#>    <dttm>                 <dbl>     <dbl>  <dbl> <dbl> <chr>        <chr>
#>  1 2022-07-28 23:43:35    NA         NA     447. NA    156 AN2C 156 ER   
#>  2 2022-07-28 23:43:36     7.22      10.9   447.  1.68 156 AN2C 156 ER   
#>  3 2022-07-28 23:43:37    NA         NA     448. NA    156 AN2C 156 ER   
#>  4 2022-07-28 23:43:38    NA         NA     449. NA    156 AN2C 156 ER   
#>  5 2022-07-28 23:43:39    NA         NA     449. NA    156 AN2C 156 ER   
#>  6 2022-07-28 23:43:40    NA         NA     450. NA    156 AN2C 156 ER   
#>  7 2022-07-28 23:43:41    NA         NA     451. NA    156 AN2C 156 ER   
#>  8 2022-07-28 23:43:42    NA         NA     451. NA    156 AN2C 156 ER   
#>  9 2022-07-28 23:43:43    NA         NA     453. NA    156 AN2C 156 ER   
#> 10 2022-07-28 23:43:44    NA         NA     453. NA    156 AN2C 156 ER   
#> # ℹ 1,241 more rows
#> # ℹ 6 more variables: f_start <dttm>, f_end <dttm>, f_fluxID <fct>,
#> #   f_n_conc <int>, f_ratio <dbl>, f_flag_match <chr>
…
