quality assessment for the fluxes calculated with the linear model — flux_quality_lin • fluxible
…
    Value

same dataframe with added flag and corrected slopes columns

    Examples

data(slopes0lin)
flux_quality_lin(slopes0lin,
  fluxID_col = "fluxID",
  slope_col = "slope", conc_col = "conc"
)
#> Joining with `by = join_by(f_fluxID)`
#> # A tibble: 1,251 × 24
#>    datetime            temp_air temp_soil f_conc   PAR turfID       type 
#>    <dttm>                 <dbl>     <dbl>  <dbl> <dbl> <fct>        <fct>
#>  1 2022-07-28 23:43:35    NA         NA     447. NA    156 AN2C 156 ER   
#>  2 2022-07-28 23:43:36     7.22      10.9   447.  1.68 156 AN2C 156 ER   
#>  3 2022-07-28 23:43:37    NA         NA     448. NA    156 AN2C 156 ER   
#>  4 2022-07-28 23:43:38    NA         NA     449. NA    156 AN2C 156 ER   
#>  5 2022-07-28 23:43:39    NA         NA     449. NA    156 AN2C 156 ER   
#>  6 2022-07-28 23:43:40    NA         NA     450. NA    156 AN2C 156 ER   
#>  7 2022-07-28 23:43:41    NA         NA     451. NA    156 AN2C 156 ER   
#>  8 2022-07-28 23:43:42    NA         NA     451. NA    156 AN2C 156 ER   
#>  9 2022-07-28 23:43:43    NA         NA     453. NA    156 AN2C 156 ER   
#> 10 2022-07-28 23:43:44    NA         NA     453. NA    156 AN2C 156 ER   
#> # ℹ 1,241 more rows
#> # ℹ 17 more variables: start <dttm>, end <dttm>, f_fluxID <fct>, n_conc <dbl>,
#> #   ratio <dbl>, flag <chr>, time <dbl>, cut <fct>, f_pvalue <dbl>,
#> #   f_rsquared <dbl>, adj.r.squared <dbl>, intercept <dbl>, f_slope <dbl>,
#> #   fit <dbl>, f_start_error <chr>, f_quality_flag <chr>, f_slope_corr <dbl>
…
